#FIG 3.2
Portrait
Center
Metric
A4
100.00
Single
-2
1200 2
# File produced from cfermion120.in by FeynFig 1.3.dvlp
# loop 0.25 
# arrow 0.35 
# blob 0.07 
# mark 1 1 1 
# cfermion  #1 x2#1 120 
2 1 0  2 -1 7 50 0    -1    0.000 2 0 -1 0 0   277
    450    450    452    453    454    457    456    460
    458    464    460    467    463    471    465    474
    467    477    469    481    471    484    474    487
    476    491    478    494    481    497    483    500
    485    504    488    507    490    510    493    513
    495    516    498    519    500    522    503    525
    506    529    508    532    511    535    514    538
    516    541    519    544    522    546    525    549
    527    552    530    555    533    558    536    561
    539    564    542    566    544    569    547    572
    550    575    553    577    556    580    559    583
    562    585    565    588    569    590    572    593
    575    595    578    598    581    600    584    603
    587    605    591    608    594    610    597    612
    600    615    604    617    607    619    610    622
    614    624    617    626    620    628    624    630
    627    632    631    635    634    637    638    639
    641    641    645    643    648    645    652    647
    655    648    659    650    662    652    666    654
    669    656    673    658    677    659    680    661
    684    663    688    664    691    666    695    668
    699    669    702    671    706    672    710    674
    714    675    717    677    721    678    725    679
    729    681    732    682    736    683    740    685
    744    686    748    687    752    688    755    689
    759    690    763    691    767    692    771    694
    775    694    779    695    783    696    786    697
    790    698    794    699    798    700    802    701
    806    701    810    702    814    703    818    703
    822    704    826    705    830    705    834    706
    838    706    842    707    846    707    850    707
    854    708    858    708    862    708    866    709
    870    709    874    709    878    709    882    709
    886    710    890    710    894    710    898    710
    902    710    906    710    910    710    914    710
    918    709    922    709    926    709    930    709
    934    709    938    708    942    708    946    708
    950    707    954    707    958    707    962    706
    966    706    970    705    974    705    978    704
    978    704    821    670    978    704    821    749
    978    704    982    703    986    703    990    702
    994    701    998    701   1002    700   1006    699
   1010    698   1014    697   1017    696   1021    695
   1025    694   1029    694   1033    692   1037    691
   1041    690   1045    689   1048    688   1052    687
   1056    686   1060    685   1064    683   1068    682
   1071    681   1075    679   1079    678   1083    677
   1086    675   1090    674   1094    672   1098    671
   1101    669   1105    668   1109    666   1112    664
   1116    663   1120    661   1123    659   1127    658
   1131    656   1134    654   1138    652   1141    650
   1145    648   1148    647   1152    645   1155    643
   1159    641   1162    639   1166    637   1169    635
   1173    632   1176    630   1180    628   1183    626
   1186    624   1190    622   1193    619   1196    617
   1200    615   1203    612   1206    610   1209    608
   1213    605   1216    603   1219    600   1222    598
   1225    595   1228    593   1231    590   1235    588
   1238    585   1241    583   1244    580   1247    577
   1250    575   1253    572   1256    569   1258    566
   1261    564   1264    561   1267    558   1270    555
   1273    552   1275    549   1278    546   1281    544
   1284    541   1286    538   1289    535   1292    532
   1294    529   1297    525   1300    522   1302    519
   1305    516   1307    513   1310    510   1312    507
   1315    504   1317    500   1319    497   1322    494
   1324    491   1326    487   1329    484   1331    481
   1333    477   1335    474   1337    471   1340    467
   1342    464   1344    460   1346    457   1348    453
   1350    450
