<?xml version="1.0" standalone="no"?>
<!-- Creator: fig2dev Version 3.2.6a -->
<!-- CreationDate: 2017-08-16 12:01:33 -->
<!-- Magnification: 1.05 -->
<svg	xmlns="http://www.w3.org/2000/svg"
	xmlns:xlink="http://www.w3.org/1999/xlink"
	width="60pt" height="34pt"
	viewBox="428 428 944 533">
<g fill="none">
<!-- Line -->
<!--  File produced from cfermion180.in by FeynFig 1.3.dvlp  -->
<!--  loop 0.25   -->
<!--  arrow 0.35   -->
<!--  blob 0.07   -->
<!--  mark 1 1 1   -->
<!--  cfermion  #1 x2#1 180   -->
<polyline points=" 450,450 450,454 450,458 450,462 450,466 450,470 451,474 451,478
 451,482 451,486 452,490 452,494 453,498 453,502 454,506 454,510 455,514 455,518
 456,522 456,526 457,530 458,534 459,538 459,542 460,546 461,550 462,553 463,557
 464,561 465,565 466,569 467,573 468,577 469,581 471,584 472,588 473,592 474,596
 476,600 477,603 478,607 480,611 481,615 483,618 484,622 486,626 487,630 489,633
 491,637 492,641 494,644 496,648 498,651 499,655 501,659 503,662 505,666 507,669
 509,673 511,676 513,680 515,683 517,686 519,690 521,693 524,697 526,700 528,703
 530,707 533,710 535,713 537,716 540,720 542,723 545,726 547,729 550,732 552,735
 555,739 557,742 560,745 563,748 565,751 568,754 571,757 573,760 576,762 579,765
 582,768 585,771 588,774 590,777 593,779 596,782 599,785 602,787 605,790 608,793
 611,795 615,798 618,800 621,803 624,805 627,808 630,810 634,813 637,815 640,817
 643,820 647,822 650,824 653,826 657,829 660,831 664,833 667,835 670,837 674,839
 677,841 681,843 684,845 688,847 691,849 695,851 699,852 702,854 706,856 709,858
 713,859 717,861 720,863 724,864 728,866 732,867 735,869 739,870 743,872 747,873
 750,874 754,876 758,877 762,878 766,879 769,881 773,882 777,883 781,884 785,885
 789,886 793,887 797,888 800,889 804,890 808,891 812,891 816,892 820,893 824,894
 828,894 832,895 836,895 840,896 844,896 848,897 852,897 856,898 860,898 864,899
 868,899 872,899 876,899 880,900 884,900 888,900 892,900 896,900 900,900 904,900
 908,900 912,900 916,900 920,900 924,899 928,899 932,899 936,899 940,898 944,898
 948,897 952,897 956,896 960,896 964,895 968,895 972,894 976,894 978,893 821,861
 978,893 821,939 978,893 980,893 984,892 988,891 992,891 996,890 1000,889 1003,888
 1007,887 1011,886 1015,885 1019,884 1023,883 1027,882 1031,881 1034,879 1038,878
 1042,877 1046,876 1050,874 1053,873 1057,872 1061,870 1065,869 1068,867 1072,866
 1076,864 1080,863 1083,861 1087,859 1091,858 1094,856 1098,854 1101,852 1105,851
 1109,849 1112,847 1116,845 1119,843 1123,841 1126,839 1130,837 1133,835 1136,833
 1140,831 1143,829 1147,826 1150,824 1153,822 1157,820 1160,817 1163,815 1166,813
 1170,810 1173,808 1176,805 1179,803 1182,800 1185,798 1189,795 1192,793 1195,790
 1198,787 1201,785 1204,782 1207,779 1210,777 1212,774 1215,771 1218,768 1221,765
 1224,762 1227,760 1229,757 1232,754 1235,751 1237,748 1240,745 1243,742 1245,739
 1248,735 1250,732 1253,729 1255,726 1258,723 1260,720 1263,716 1265,713 1267,710
 1270,707 1272,703 1274,700 1276,697 1279,693 1281,690 1283,686 1285,683 1287,680
 1289,676 1291,673 1293,669 1295,666 1297,662 1299,659 1301,655 1302,651 1304,648
 1306,644 1308,641 1309,637 1311,633 1313,630 1314,626 1316,622 1317,618 1319,615
 1320,611 1322,607 1323,603 1324,600 1326,596 1327,592 1328,588 1329,584 1331,581
 1332,577 1333,573 1334,569 1335,565 1336,561 1337,557 1338,553 1339,550 1340,546
 1341,542 1341,538 1342,534 1343,530 1344,526 1344,522 1345,518 1345,514 1346,510
 1346,506 1347,502 1347,498 1348,494 1348,490 1349,486 1349,482 1349,478 1349,474
 1350,470 1350,466 1350,462 1350,458 1350,454 1350,450"
	stroke="#000000" stroke-width="15px" stroke-linejoin="bevel"/>
</g>
</svg>
