#FIG 3.2
Portrait
Center
Metric
A4
100.00
Single
-2
1200 2
# File produced from cgluon1.0_180.in by FeynFig 1.3.dvlp
# loop 0.25 
# arrow 0.35 
# blob 0.07 
# mark 1 1 1 
# cgluon x1#1 #1 -180 
3 0 0  2 -1 7 50 0    -1    0.000 0 0 0    85
    900    450    900    473    895    496    885    516
    871    532    854    543    838    548    822    547
    810    542    801    534    798    524    799    514
    806    506    815    502    827    502    840    508
    851    519    858    535    861    554    859    576
    851    597    838    616    821    631    800    642
    779    648    758    648    740    642    726    633
    717    621    713    609    715    597    720    589
    729    584    740    585    749    590    756    600
    760    614    758    630    750    647    737    662
    720    675    698    683    675    686    652    683
    630    675    613    662    600    647    592    630
    590    614    594    600    601    590    610    585
    621    584    630    589    635    597    637    609
    633    621    624    633    610    642    592    648
    571    648    550    642    529    631    512    616
    499    597    491    576    489    554    492    535
    499    519    510    508    523    502    535    502
    544    506    551    514    552    524    549    534
    540    542    528    547    512    548    496    543
    479    532    465    516    455    496    450    473
    450    450
   0.0   1.0   1.0   1.0   1.0   1.0   1.0   1.0
   1.0   1.0   1.0   1.0   1.0   1.0   1.0   1.0
   1.0   1.0   1.0   1.0   1.0   1.0   1.0   1.0
   1.0   1.0   1.0   1.0   1.0   1.0   1.0   1.0
   1.0   1.0   1.0   1.0   1.0   1.0   1.0   1.0
   1.0   1.0   1.0   1.0   1.0   1.0   1.0   1.0
   1.0   1.0   1.0   1.0   1.0   1.0   1.0   1.0
   1.0   1.0   1.0   1.0   1.0   1.0   1.0   1.0
   1.0   1.0   1.0   1.0   1.0   1.0   1.0   1.0
   1.0   1.0   1.0   1.0   1.0   1.0   1.0   1.0
   1.0   1.0   1.0   1.0   0.0
