<?xml version="1.0" standalone="no"?>
<!-- Creator: fig2dev Version 3.2.6a -->
<!-- CreationDate: 2017-08-16 12:01:33 -->
<!-- Magnification: 1.05 -->
<svg	xmlns="http://www.w3.org/2000/svg"
	xmlns:xlink="http://www.w3.org/1999/xlink"
	width="32pt" height="11pt"
	viewBox="428 428 494 170">
<g fill="none">
<!-- Line -->
<!--  File produced from cgluon1.0_120.in by FeynFig 1.3.dvlp  -->
<!--  loop 0.25   -->
<!--  arrow 0.35   -->
<!--  blob 0.07   -->
<!--  mark 1 1 1   -->
<!--  cgluon x1#1 #1 -120   -->
<polyline points=" 900,450 899,451 897,456 893,462 890,467 888,470 885,474 882,477
 879,481 875,484 872,487 869,490 865,492 861,495 857,497 854,499 850,501 846,503
 842,505 838,506 834,507 830,508 826,508 822,508 818,508 815,508 811,508 807,507
 804,506 801,505 798,505 795,503 792,502 789,501 787,499 785,497 783,496 781,494
 779,491 777,489 776,487 775,485 774,483 773,480 773,478 773,476 773,474 773,472
 773,470 773,468 774,466 775,465 776,463 777,461 778,460 780,459 781,458 783,457
 785,456 786,456 788,456 790,456 792,456 795,456 797,456 799,457 801,458 803,459
 805,460 807,461 809,463 810,465 812,467 814,469 815,471 816,474 817,476 818,479
 819,482 820,485 820,489 821,492 821,495 821,499 820,503 820,506 819,510 818,513
 817,518 815,521 813,525 812,528 809,532 807,536 805,539 802,543 799,546 796,549
 792,552 789,555 785,558 782,560 778,563 773,565 769,567 765,569 761,571 756,572
 752,573 747,574 743,575 738,576 734,576 729,576 724,576 720,576 715,576 711,575
 706,574 702,573 698,572 695,571 691,569 687,567 683,565 680,563 677,561 674,559
 671,556 668,553 666,551 664,548 662,545 660,542 659,540 658,537 657,534 656,532
 655,529 654,526 654,523 654,521 654,518 654,515 655,513 656,511 656,509 658,507
 659,505 660,503 662,502 663,500 665,499 667,498 668,497 670,497 672,496 674,496
 676,496 678,496 680,497 682,497 683,498 685,499 687,500 689,502 690,503 691,505
 692,507 694,509 694,511 695,513 696,515 696,518 696,521 696,523 696,526 695,529
 694,532 693,534 692,537 691,540 690,542 688,545 686,548 684,551 682,553 679,556
 676,559 673,561 670,563 667,565 663,567 659,569 655,571 652,572 648,573 644,574
 639,575 635,576 631,576 626,576 621,576 616,576 612,576 607,575 603,574 598,573
 594,572 589,571 585,569 581,567 577,565 572,563 568,560 565,558 561,555 558,552
 554,549 551,546 548,543 545,539 543,536 541,532 538,528 537,525 535,521 533,518
 532,513 531,510 530,506 530,503 529,499 529,495 529,492 530,489 530,485 531,482
 532,479 533,476 534,474 535,471 536,469 538,467 540,465 541,463 543,461 545,460
 547,459 549,458 551,457 553,456 555,456 558,456 560,456 562,456 564,456 565,456
 567,457 569,458 571,459 572,460 573,461 574,463 575,465 576,466 577,468 577,470
 577,472 577,474 577,476 577,478 577,480 576,483 575,485 574,487 573,489 571,491
 569,494 567,496 565,497 563,499 561,501 558,502 555,503 552,505 549,505 546,506
 543,507 539,508 536,508 532,508 528,508 524,508 520,508 516,507 512,506 508,505
 504,503 500,501 496,499 493,497 489,495 485,492 481,490 478,487 475,484 471,481
 468,477 465,474 463,470 460,467 457,462 453,456 451,451 450,450"
	stroke="#000000" stroke-width="15px" stroke-linejoin="bevel"/>
</g>
</svg>
