#FIG 3.2
Portrait
Center
Metric
A4
100.00
Single
-2
1200 2
# File produced from cgluon120.in by FeynFig 1.3.dvlp
# loop 0.25 
# arrow 0.35 
# blob 0.07 
# mark 1 1 1 
# cgluon x2#1 #1 -120 
3 0 0  2 -1 7 50 0    -1    0.000 0 0 0   127
   1350    450   1338    472   1322    491   1302    505
   1282    515   1261    518   1243    517   1227    511
   1217    502   1211    491   1210    481   1214    472
   1222    466   1233    465   1244    468   1255    477
   1263    491   1268    509   1268    529   1262    551
   1252    572   1236    592   1216    607   1194    619
   1171    625   1149    625   1129    621   1113    612
   1102    601   1096    589   1095    577   1099    568
   1107    561   1116    560   1127    563   1136    571
   1142    584   1144    601   1142    619   1133    639
   1120    657   1101    673   1079    685   1055    692
   1031    694   1007    690    987    682    971    671
    960    657    954    643    954    630    958    619
    965    612    975    610    985    613    993    620
    998    632    998    647    994    664    984    680
    968    695    948    707    925    714    900    717
    875    714    852    707    832    695    816    680
    806    664    802    647    802    632    807    620
    815    613    825    610    835    612    842    619
    846    630    846    643    840    657    829    671
    813    682    793    690    769    694    745    692
    721    685    699    673    680    657    667    639
    658    619    656    601    658    584    664    571
    673    563    684    560    693    561    701    568
    705    577    704    589    698    601    687    612
    671    621    651    625    629    625    606    619
    584    607    564    592    548    572    538    551
    532    529    532    509    537    491    545    477
    556    468    567    465    578    466    586    472
    590    481    589    491    583    502    573    511
    557    517    539    518    518    515    498    505
    478    491    462    472    450    450
   0.0   1.0   1.0   1.0   1.0   1.0   1.0   1.0
   1.0   1.0   1.0   1.0   1.0   1.0   1.0   1.0
   1.0   1.0   1.0   1.0   1.0   1.0   1.0   1.0
   1.0   1.0   1.0   1.0   1.0   1.0   1.0   1.0
   1.0   1.0   1.0   1.0   1.0   1.0   1.0   1.0
   1.0   1.0   1.0   1.0   1.0   1.0   1.0   1.0
   1.0   1.0   1.0   1.0   1.0   1.0   1.0   1.0
   1.0   1.0   1.0   1.0   1.0   1.0   1.0   1.0
   1.0   1.0   1.0   1.0   1.0   1.0   1.0   1.0
   1.0   1.0   1.0   1.0   1.0   1.0   1.0   1.0
   1.0   1.0   1.0   1.0   1.0   1.0   1.0   1.0
   1.0   1.0   1.0   1.0   1.0   1.0   1.0   1.0
   1.0   1.0   1.0   1.0   1.0   1.0   1.0   1.0
   1.0   1.0   1.0   1.0   1.0   1.0   1.0   1.0
   1.0   1.0   1.0   1.0   1.0   1.0   1.0   1.0
   1.0   1.0   1.0   1.0   1.0   1.0   0.0
