<?xml version="1.0" standalone="no"?>
<!-- Creator: fig2dev Version 3.2.6a -->
<!-- CreationDate: 2017-08-16 12:01:33 -->
<!-- Magnification: 1.05 -->
<svg	xmlns="http://www.w3.org/2000/svg"
	xmlns:xlink="http://www.w3.org/1999/xlink"
	width="40pt" height="16pt"
	viewBox="394 329 629 242">
<g fill="none">
<!-- Line -->
<!--  File produced from dfermion1.3.in by FeynFig 1.3.dvlp  -->
<!--  loop 0.25   -->
<!--  arrow 0.35   -->
<!--  blob 0.07   -->
<!--  mark 1 1 1   -->
<!--  dfermion #1 x1.3#1   -->
<polyline points=" 416,427 709,427 594,351 709,427 742,450 709,472 594,549 709,472
 416,472 709,472 1001,472 709,472 742,450 709,427 1001,427"
	stroke="#000000" stroke-width="15px" stroke-linejoin="bevel"/>
</g>
</svg>
