<?xml version="1.0" standalone="no"?>
<!-- Creator: fig2dev Version 3.2.6a -->
<!-- CreationDate: 2017-08-16 12:01:33 -->
<!-- Magnification: 1.05 -->
<svg	xmlns="http://www.w3.org/2000/svg"
	xmlns:xlink="http://www.w3.org/1999/xlink"
	width="60pt" height="10pt"
	viewBox="428 373 944 153">
<g fill="none">
<!-- Line -->
<!--  File produced from photon2.0.in by FeynFig 1.3.dvlp  -->
<!--  loop 0.25   -->
<!--  arrow 0.35   -->
<!--  blob 0.07   -->
<!--  mark 1 1 1   -->
<!--  photon #1 x2.0#1   -->
<polyline points=" 450,450 451,451 454,457 458,464 461,469 464,473 467,477 469,481
 473,485 475,489 478,492 481,495 483,497 487,500 489,502 492,503 495,504 497,504
 501,504 503,504 506,503 509,502 511,501 515,498 517,496 520,494 523,491 525,488
 529,484 531,480 534,476 537,472 539,467 543,462 545,457 548,453 551,448 554,443
 557,438 559,433 562,429 565,425 568,420 571,416 574,412 577,409 580,406 582,404
 585,401 588,399 591,398 594,397 596,396 600,395 602,395 605,396 608,397 610,398
 614,400 616,402 619,405 622,407 624,410 628,414 630,418 633,422 636,426 638,430
 642,435 644,440 647,444 650,449 652,454 656,459 658,464 661,468 664,473 666,477
 670,481 672,485 675,489 678,492 680,495 684,497 686,500 689,501 692,503 694,504
 698,504 700,504 703,504 706,503 708,502 712,501 714,499 717,497 720,494 722,491
 726,487 728,484 731,480 734,476 736,472 740,467 742,462 745,458 748,453 750,449
 754,443 756,439 759,434 762,430 764,426 768,421 770,417 773,413 776,410 779,407
 782,404 784,402 787,400 790,398 793,397 796,396 799,396 802,396 805,396 807,397
 810,398 813,400 816,402 819,404 821,407 825,410 827,414 830,417 833,421 835,425
 839,430 841,435 844,439 847,444 849,449 853,454 855,459 858,464 861,468 863,472
 867,477 869,481 872,485 875,488 877,491 881,495 883,497 886,499 889,501 891,502
 895,504 897,504 900,504 903,504 905,504 909,502 911,501 914,499 917,497 919,495
 923,491 925,488 928,485 931,481 933,477 937,472 939,468 942,464 945,459 947,454
 951,449 953,444 956,439 959,435 961,430 965,425 967,421 970,417 973,414 975,410
 979,407 981,404 984,402 987,400 989,398 993,397 995,396 998,396 1001,396 1004,396
 1007,397 1009,398 1012,400 1015,402 1018,404 1021,407 1024,410 1027,413 1030,417
 1032,421 1035,426 1038,430 1041,434 1044,439 1046,443 1050,449 1052,453 1055,458
 1058,462 1060,467 1064,472 1066,476 1069,480 1072,484 1074,487 1078,491 1080,494
 1083,497 1086,499 1088,501 1092,502 1094,503 1097,504 1100,504 1102,504 1106,504
 1108,503 1111,501 1114,500 1116,497 1120,495 1122,492 1125,489 1128,485 1130,481
 1134,477 1136,473 1139,468 1142,464 1144,459 1148,454 1150,449 1153,444 1156,440
 1158,435 1162,430 1164,426 1167,422 1170,418 1172,414 1176,410 1178,407 1181,405
 1184,402 1186,400 1190,398 1192,397 1195,396 1198,395 1200,395 1204,396 1206,397
 1209,398 1212,399 1215,401 1218,404 1220,406 1223,409 1226,412 1229,416 1232,420
 1235,425 1238,429 1241,433 1243,438 1246,443 1249,448 1252,453 1255,457 1257,462
 1261,467 1263,472 1266,476 1269,480 1271,484 1275,488 1277,491 1280,494 1283,496
 1285,498 1289,501 1291,502 1294,503 1297,504 1299,504 1303,504 1305,504 1308,503
 1311,502 1313,500 1317,497 1319,495 1322,492 1325,489 1327,485 1331,481 1333,477
 1336,473 1339,469 1342,464 1346,457 1349,451 1350,450"
	stroke="#000000" stroke-width="15px" stroke-linejoin="bevel"/>
</g>
</svg>
