#FIG 3.2
Portrait
Center
Metric
A4
100.00
Single
-2
1200 2
# File produced from photon1.3.in by FeynFig 1.3.dvlp
# loop 0.25 
# arrow 0.35 
# blob 0.07 
# mark 1 1 1 
# photon #1 x1.3#1 
3 0 0  2 -1 7 50 0    -1    0.000 0 0 0    33
    450    450    468    477    487    497    505    506
    523    502    541    486    560    461    578    434
    596    410    615    396    633    395    651    407
    669    428    688    456    706    481    724    500
    743    506    761    500    779    481    797    456
    816    428    834    407    852    395    870    396
    889    410    907    434    925    461    944    486
    962    502    980    506    998    497   1017    477
   1035    450
   0.0   1.0   1.0   1.0   1.0   1.0   1.0   1.0
   1.0   1.0   1.0   1.0   1.0   1.0   1.0   1.0
   1.0   1.0   1.0   1.0   1.0   1.0   1.0   1.0
   1.0   1.0   1.0   1.0   1.0   1.0   1.0   1.0
   0.0
