#FIG 3.2
Portrait
Center
Metric
A4
100.00
Single
-2
1200 2
# File produced from pomeron1.3.in by FeynFig 1.3.dvlp
# loop 0.25 
# arrow 0.35 
# blob 0.07 
# mark 1 1 1 
# pomeron #1 x1.3#1 
2 1 0  2 -1 7 50 0    -1    0.000 2 0 -1 0 0     5
    450    450    596    568    742    450    889    568
   1035    450
