<?xml version="1.0" standalone="no"?>
<!-- Creator: fig2dev Version 3.2.6a -->
<!-- CreationDate: 2017-08-16 12:01:33 -->
<!-- Magnification: 1.05 -->
<svg	xmlns="http://www.w3.org/2000/svg"
	xmlns:xlink="http://www.w3.org/1999/xlink"
	width="74pt" height="11pt"
	viewBox="428 428 1169 162">
<g fill="none">
<!-- Line -->
<!--  File produced from pomeron2.5.in by FeynFig 1.3.dvlp  -->
<!--  loop 0.25   -->
<!--  arrow 0.35   -->
<!--  blob 0.07   -->
<!--  mark 1 1 1   -->
<!--  pomeron #1 x2.5#1   -->
<polyline points=" 450,450 591,568 731,450 872,568 1013,450 1153,568 1294,450
 1434,568 1575,450"
	stroke="#000000" stroke-width="15px" stroke-linejoin="bevel"/>
</g>
</svg>
