#FIG 3.2
Portrait
Center
Metric
A4
100.00
Single
-2
1200 2
# File produced from pomeron2.5.in by FeynFig 1.3.dvlp
# loop 0.25 
# arrow 0.35 
# blob 0.07 
# mark 1 1 1 
# pomeron #1 x2.5#1 
2 1 0  2 -1 7 50 0    -1    0.000 2 0 -1 0 0     9
    450    450    591    568    731    450    872    568
   1013    450   1153    568   1294    450   1434    568
   1575    450
