#FIG 3.2
Portrait
Center
Metric
A4
100.00
Single
-2
1200 2
# File produced from pomeron2.0.in by FeynFig 1.3.dvlp
# loop 0.25 
# arrow 0.35 
# blob 0.07 
# mark 1 1 1 
# pomeron #1 x2.0#1 
2 1 0  2 -1 7 50 0    -1    0.000 2 0 -1 0 0     7
    450    450    600    568    750    450    900    568
   1050    450   1200    568   1350    450
