#FIG 3.2
Portrait
Center
Metric
A4
100.00
Single
-2
1200 2
# File produced from vertex.in by FeynFig 1.3.dvlp
# loop 0.25 
# arrow 0.35 
# blob 0.07 
# mark 1 1 1 
# vertex 
1 3 0    2  -1  -1 50 0  20 0.00000 1 0.000     0     0    32    32     0     0    32     0
