<?xml version="1.0" standalone="no"?>
<!-- Creator: fig2dev Version 3.2.6a -->
<!-- CreationDate: 2017-08-16 12:01:33 -->
<!-- Magnification: 1.05 -->
<svg	xmlns="http://www.w3.org/2000/svg"
	xmlns:xlink="http://www.w3.org/1999/xlink"
	width="6pt" height="6pt"
	viewBox="-47 -46 94 92">
<g fill="none">
<!-- Circle -->
<!--  File produced from vertex.in by FeynFig 1.3.dvlp  -->
<!--  loop 0.25   -->
<!--  arrow 0.35   -->
<!--  blob 0.07   -->
<!--  mark 1 1 1   -->
<!--  vertex   -->
<circle cx="0" cy="0" r="32" fill="#000000"
	stroke="#000000" stroke-width="15px"/>
</g>
</svg>
